<?xml version="1.0" encoding="UTF-8"?>
<!-- Generated by IcoMoon.io -->
<!DOCTYPE svg PUBLIC "-//W3C//DTD SVG 1.1//EN" "http://www.w3.org/Graphics/SVG/1.1/DTD/svg11.dtd">
<svg version="1.1" xmlns="http://www.w3.org/2000/svg" xmlns:xlink="http://www.w3.org/1999/xlink" width="32" height="32" viewBox="0 0 32 32">
<g>
</g>
	<path d="M24 28h-22v-28h22v28zM4 26h18v-24h-18v24z" fill="#000000"/>
	<path d="M7 12h12v2h-12v-2z" fill="#000000"/>
	<path d="M7 16h12v2h-12v-2z" fill="#000000"/>
	<path d="M7 20h12v2h-12v-2z" fill="#000000"/>
	<path d="M7 7.983h6v2h-6v-2z" fill="#000000"/>
	<path d="M30 32h-21v-2h19v-24h-1.945v-2h3.945z" fill="#000000"/>
</svg>