<?xml version="1.0" encoding="UTF-8"?>
<!-- Generated by IcoMoon.io -->
<!DOCTYPE svg PUBLIC "-//W3C//DTD SVG 1.1//EN" "http://www.w3.org/Graphics/SVG/1.1/DTD/svg11.dtd">
<svg version="1.1" xmlns="http://www.w3.org/2000/svg" xmlns:xlink="http://www.w3.org/1999/xlink" width="32" height="32" viewBox="0 0 32 32">
<g>
</g>
	<path d="M9 14h13v2h-13v-2z" fill="#000000"/>
	<path d="M9 18h13v2h-13v-2z" fill="#000000"/>
	<path d="M9 22h13v2h-13v-2z" fill="#000000"/>
	<path d="M9 8h6v2h-6v-2z" fill="#000000"/>
	<path d="M29 32h-27v-28h2v26h23v-28h-25v-2h27z" fill="#000000"/>
</svg>