<?xml version="1.0" encoding="UTF-8"?>
<!-- Generated by IcoMoon.io -->
<!DOCTYPE svg PUBLIC "-//W3C//DTD SVG 1.1//EN" "http://www.w3.org/Graphics/SVG/1.1/DTD/svg11.dtd">
<svg version="1.1" xmlns="http://www.w3.org/2000/svg" xmlns:xlink="http://www.w3.org/1999/xlink" width="32" height="32" viewBox="0 0 32 32">
<g>
</g>
	<path d="M32 32h-32v-25h2v23h28v-23h2z" fill="#000000"/>
	<path d="M9.144 15.486l1.715 1.029-6.001 9.999-1.715-1.029 6.001-9.999z" fill="#000000"/>
	<path d="M16 20.118l-12.447-6.223 0.894-1.79 11.553 5.777 11.553-5.777 0.894 1.79z" fill="#000000"/>
	<path d="M22.857 15.486l6 10-1.715 1.029-6-10 1.715-1.029z" fill="#000000"/>
	<path d="M28 11h-2v-9h-20v9h-2v-11h24z" fill="#000000"/>
	<path d="M8 4h7v2h-7v-2z" fill="#000000"/>
	<path d="M8 8h14v2h-14v-2z" fill="#000000"/>
</svg>