<?xml version="1.0" encoding="UTF-8"?>
<!-- Generated by IcoMoon.io -->
<!DOCTYPE svg PUBLIC "-//W3C//DTD SVG 1.1//EN" "http://www.w3.org/Graphics/SVG/1.1/DTD/svg11.dtd">
<svg version="1.1" xmlns="http://www.w3.org/2000/svg" xmlns:xlink="http://www.w3.org/1999/xlink" width="32" height="32" viewBox="0 0 32 32">
<g>
</g>
	<path d="M16 32c-8.822 0-16-7.178-16-16s7.178-16 16-16 16 7.178 16 16-7.178 16-16 16zM16 2c-7.72 0-14 6.28-14 14s6.28 14 14 14 14-6.28 14-14-6.28-14-14-14z" fill="#000000"/>
	<path d="M8 22.805v-8.805h2v5.195l5.032-3.144-7.517-4.177 0.97-1.748 10.483 5.823z" fill="#000000"/>
	<path d="M15 22.805v-2.805h0.713l6.319-3.949-7.517-4.177 0.97-1.748 10.483 5.823z" fill="#000000"/>
</svg>