<?xml version="1.0" encoding="UTF-8"?>
<!-- Generated by IcoMoon.io -->
<!DOCTYPE svg PUBLIC "-//W3C//DTD SVG 1.1//EN" "http://www.w3.org/Graphics/SVG/1.1/DTD/svg11.dtd">
<svg version="1.1" xmlns="http://www.w3.org/2000/svg" xmlns:xlink="http://www.w3.org/1999/xlink" width="32" height="32" viewBox="0 0 32 32">
<g>
</g>
	<path d="M32 28h-32v-6h32v6zM2 26h28v-2h-28v2z" fill="#000000"/>
	<path d="M30 20h-2v-14h-24v14h-2v-16h28z" fill="#000000"/>
	<path d="M26 20h-2v-10h-16v10h-2v-12h20z" fill="#000000"/>
</svg>