<?xml version="1.0" encoding="UTF-8"?>
<!-- Generated by IcoMoon.io -->
<!DOCTYPE svg PUBLIC "-//W3C//DTD SVG 1.1//EN" "http://www.w3.org/Graphics/SVG/1.1/DTD/svg11.dtd">
<svg version="1.1" xmlns="http://www.w3.org/2000/svg" xmlns:xlink="http://www.w3.org/1999/xlink" width="32" height="32" viewBox="0 0 32 32">
<g>
</g>
	<path d="M26 8h-20v-8h20v8zM8 6h16v-4h-16v4z" fill="#000000"/>
	<path d="M26 32h-20v-22.048h2v20.048h16v-20.048h2z" fill="#000000"/>
	<path d="M15 26h2v2h-2v-2z" fill="#000000"/>
	<path d="M14 3h4v2h-4v-2z" fill="#000000"/>
	<path d="M7 22h18v2h-18v-2z" fill="#000000"/>
</svg>