<?xml version="1.0" encoding="UTF-8"?>
<!-- Generated by IcoMoon.io -->
<!DOCTYPE svg PUBLIC "-//W3C//DTD SVG 1.1//EN" "http://www.w3.org/Graphics/SVG/1.1/DTD/svg11.dtd">
<svg version="1.1" xmlns="http://www.w3.org/2000/svg" xmlns:xlink="http://www.w3.org/1999/xlink" width="32" height="32" viewBox="0 0 32 32">
<g>
</g>
	<path d="M21.479 31.777l-8.479-7.635v2.492l0.323-0.313 1.393 1.434-3.716 3.611v-11.717l9.521 8.574 7.907-24.599-24.582 8.779 5.276 5.142 10.185-7.71 1.207 1.595-11.556 8.748-8.804-8.581 31.418-11.221z" fill="#000000"/>
</svg>