<?xml version="1.0" encoding="UTF-8"?>
<!-- Generated by IcoMoon.io -->
<!DOCTYPE svg PUBLIC "-//W3C//DTD SVG 1.1//EN" "http://www.w3.org/Graphics/SVG/1.1/DTD/svg11.dtd">
<svg version="1.1" xmlns="http://www.w3.org/2000/svg" xmlns:xlink="http://www.w3.org/1999/xlink" width="32" height="32" viewBox="0 0 32 32">
<g>
</g>
	<path d="M32 10h-32v-6h32v6zM2 8h28v-2h-28v2z" fill="#000000"/>
	<path d="M19 28.010h-6v-2.010c0-4.962-4.037-9-9-9h-4v-4.997h2v2.997h2c6.065 0 11 4.935 11 11v0.010l2-0.010c0-6.065 4.935-11 11-11h2v-2.997h2v4.997h-4c-4.963 0-9 4.038-9 9v2.010z" fill="#000000"/>
</svg>